%YAML 1.1
%TAG !u! tag:unity3d.com,2011:
--- !u!1001 &1553590409082818139
PrefabInstance:
  m_ObjectHideFlags: 0
  serializedVersion: 2
  m_Modification:
    m_TransformParent: {fileID: 0}
    m_Modifications:
    - target: {fileID: 566345678, guid: 3b781cc27aec01b4b9de829cd368c90b, type: 3}
      propertyPath: enemyData
      value: 
      objectReference: {fileID: 11400000, guid: 2cbb78feca79c8441847468824df684c,
        type: 2}
    - target: {fileID: 541389554011675659, guid: 3b781cc27aec01b4b9de829cd368c90b,
        type: 3}
      propertyPath: m_Name
      value: Enemy T5 Tank Green
      objectReference: {fileID: 0}
    - target: {fileID: 1123291642634777988, guid: 3b781cc27aec01b4b9de829cd368c90b,
        type: 3}
      propertyPath: m_RootOrder
      value: 0
      objectReference: {fileID: 0}
    - target: {fileID: 1123291642634777988, guid: 3b781cc27aec01b4b9de829cd368c90b,
        type: 3}
      propertyPath: m_LocalScale.x
      value: 2
      objectReference: {fileID: 0}
    - target: {fileID: 1123291642634777988, guid: 3b781cc27aec01b4b9de829cd368c90b,
        type: 3}
      propertyPath: m_LocalScale.y
      value: 2
      objectReference: {fileID: 0}
    - target: {fileID: 1123291642634777988, guid: 3b781cc27aec01b4b9de829cd368c90b,
        type: 3}
      propertyPath: m_LocalScale.z
      value: 2
      objectReference: {fileID: 0}
    - target: {fileID: 1123291642634777988, guid: 3b781cc27aec01b4b9de829cd368c90b,
        type: 3}
      propertyPath: m_LocalPosition.x
      value: 0
      objectReference: {fileID: 0}
    - target: {fileID: 1123291642634777988, guid: 3b781cc27aec01b4b9de829cd368c90b,
        type: 3}
      propertyPath: m_LocalPosition.y
      value: 0
      objectReference: {fileID: 0}
    - target: {fileID: 1123291642634777988, guid: 3b781cc27aec01b4b9de829cd368c90b,
        type: 3}
      propertyPath: m_LocalPosition.z
      value: 0
      objectReference: {fileID: 0}
    - target: {fileID: 1123291642634777988, guid: 3b781cc27aec01b4b9de829cd368c90b,
        type: 3}
      propertyPath: m_LocalRotation.w
      value: 1
      objectReference: {fileID: 0}
    - target: {fileID: 1123291642634777988, guid: 3b781cc27aec01b4b9de829cd368c90b,
        type: 3}
      propertyPath: m_LocalRotation.x
      value: 0
      objectReference: {fileID: 0}
    - target: {fileID: 1123291642634777988, guid: 3b781cc27aec01b4b9de829cd368c90b,
        type: 3}
      propertyPath: m_LocalRotation.y
      value: 0
      objectReference: {fileID: 0}
    - target: {fileID: 1123291642634777988, guid: 3b781cc27aec01b4b9de829cd368c90b,
        type: 3}
      propertyPath: m_LocalRotation.z
      value: 0
      objectReference: {fileID: 0}
    - target: {fileID: 1123291642634777988, guid: 3b781cc27aec01b4b9de829cd368c90b,
        type: 3}
      propertyPath: m_LocalEulerAnglesHint.x
      value: 0
      objectReference: {fileID: 0}
    - target: {fileID: 1123291642634777988, guid: 3b781cc27aec01b4b9de829cd368c90b,
        type: 3}
      propertyPath: m_LocalEulerAnglesHint.y
      value: 0
      objectReference: {fileID: 0}
    - target: {fileID: 1123291642634777988, guid: 3b781cc27aec01b4b9de829cd368c90b,
        type: 3}
      propertyPath: m_LocalEulerAnglesHint.z
      value: 0
      objectReference: {fileID: 0}
    - target: {fileID: 3685373959389266674, guid: 3b781cc27aec01b4b9de829cd368c90b,
        type: 3}
      propertyPath: healthSystem.health
      value: 1000
      objectReference: {fileID: 0}
    - target: {fileID: 3685373959389266674, guid: 3b781cc27aec01b4b9de829cd368c90b,
        type: 3}
      propertyPath: healthSystem.maxHealth
      value: 1000
      objectReference: {fileID: 0}
    - target: {fileID: 3685373959389266674, guid: 3b781cc27aec01b4b9de829cd368c90b,
        type: 3}
      propertyPath: onDeath.m_PersistentCalls.m_Calls.Array.data[1].m_Arguments.m_ObjectArgument
      value: 
      objectReference: {fileID: 8300000, guid: 045ca90832d049e43a528605d6892de4, type: 3}
    - target: {fileID: 6923429424329194480, guid: 3b781cc27aec01b4b9de829cd368c90b,
        type: 3}
      propertyPath: m_Materials.Array.data[0]
      value: 
      objectReference: {fileID: 2100000, guid: 246b9746a96db434f83522ac273bab64, type: 2}
    - target: {fileID: 8726758654118781762, guid: 3b781cc27aec01b4b9de829cd368c90b,
        type: 3}
      propertyPath: material
      value: 
      objectReference: {fileID: 2100000, guid: 246b9746a96db434f83522ac273bab64, type: 2}
    m_RemovedComponents: []
  m_SourcePrefab: {fileID: 100100000, guid: 3b781cc27aec01b4b9de829cd368c90b, type: 3}
