%YAML 1.1
%TAG !u! tag:unity3d.com,2011:
--- !u!114 &11400000
MonoBehaviour:
  m_ObjectHideFlags: 0
  m_CorrespondingSourceObject: {fileID: 0}
  m_PrefabInstance: {fileID: 0}
  m_PrefabAsset: {fileID: 0}
  m_GameObject: {fileID: 0}
  m_Enabled: 1
  m_EditorHideFlags: 0
  m_Script: {fileID: 11500000, guid: 1bd9ce81177a4996b6362a3c6d1a5756, type: 3}
  m_Name: Wave Data
  m_EditorClassIdentifier: 
  Waves:
  - groups:
    - enemyData: {fileID: 11400000, guid: 0869fc4f98beca64dbdee50284a5704b, type: 2}
      amount: 15
      rate: 0.65
    - enemyData: {fileID: 11400000, guid: 0869fc4f98beca64dbdee50284a5704b, type: 2}
      amount: 12
      rate: 0.55
    - enemyData: {fileID: 11400000, guid: 0869fc4f98beca64dbdee50284a5704b, type: 2}
      amount: 10
      rate: 0.75
  - groups:
    - enemyData: {fileID: 11400000, guid: 0869fc4f98beca64dbdee50284a5704b, type: 2}
      amount: 20
      rate: 0.4
    - enemyData: {fileID: 11400000, guid: 046a25368dda7a842bf744333ae98cca, type: 2}
      amount: 4
      rate: 0.6
    - enemyData: {fileID: 11400000, guid: 0869fc4f98beca64dbdee50284a5704b, type: 2}
      amount: 20
      rate: 0.5
  - groups:
    - enemyData: {fileID: 11400000, guid: 0869fc4f98beca64dbdee50284a5704b, type: 2}
      amount: 30
      rate: 0.2
    - enemyData: {fileID: 11400000, guid: 046a25368dda7a842bf744333ae98cca, type: 2}
      amount: 5
      rate: 0.2
    - enemyData: {fileID: 11400000, guid: 0869fc4f98beca64dbdee50284a5704b, type: 2}
      amount: 10
      rate: 0.6
    - enemyData: {fileID: 11400000, guid: 0869fc4f98beca64dbdee50284a5704b, type: 2}
      amount: 20
      rate: 0.15
  - groups:
    - enemyData: {fileID: 11400000, guid: 046a25368dda7a842bf744333ae98cca, type: 2}
      amount: 8
      rate: 0.3
    - enemyData: {fileID: 11400000, guid: 0869fc4f98beca64dbdee50284a5704b, type: 2}
      amount: 30
      rate: 0.2
    - enemyData: {fileID: 11400000, guid: b90fd9bb074c0574db7932fdb30c8bd6, type: 2}
      amount: 5
      rate: 0.3
    - enemyData: {fileID: 11400000, guid: 046a25368dda7a842bf744333ae98cca, type: 2}
      amount: 15
      rate: 0.4
    - enemyData: {fileID: 11400000, guid: 0869fc4f98beca64dbdee50284a5704b, type: 2}
      amount: 15
      rate: 0.4
  - groups:
    - enemyData: {fileID: 11400000, guid: 2cbb78feca79c8441847468824df684c, type: 2}
      amount: 2
      rate: 3
    - enemyData: {fileID: 11400000, guid: 0869fc4f98beca64dbdee50284a5704b, type: 2}
      amount: 10
      rate: 0.1
    - enemyData: {fileID: 11400000, guid: 046a25368dda7a842bf744333ae98cca, type: 2}
      amount: 15
      rate: 0.25
    - enemyData: {fileID: 11400000, guid: 1f8bb8a79a89f344dbdfc2f0832c7cba, type: 2}
      amount: 8
      rate: 0.4
    - enemyData: {fileID: 11400000, guid: 046a25368dda7a842bf744333ae98cca, type: 2}
      amount: 20
      rate: 0.2
  - groups:
    - enemyData: {fileID: 11400000, guid: 046a25368dda7a842bf744333ae98cca, type: 2}
      amount: 15
      rate: 0.2
    - enemyData: {fileID: 11400000, guid: b90fd9bb074c0574db7932fdb30c8bd6, type: 2}
      amount: 6
      rate: 0.3
    - enemyData: {fileID: 11400000, guid: 1f8bb8a79a89f344dbdfc2f0832c7cba, type: 2}
      amount: 15
      rate: 0.25
    - enemyData: {fileID: 11400000, guid: b90fd9bb074c0574db7932fdb30c8bd6, type: 2}
      amount: 10
      rate: 0.3
    - enemyData: {fileID: 11400000, guid: 0869fc4f98beca64dbdee50284a5704b, type: 2}
      amount: 50
      rate: 0.25
    - enemyData: {fileID: 11400000, guid: 1f8bb8a79a89f344dbdfc2f0832c7cba, type: 2}
      amount: 15
      rate: 0.25
  - groups:
    - enemyData: {fileID: 11400000, guid: 0869fc4f98beca64dbdee50284a5704b, type: 2}
      amount: 30
      rate: 0.1
    - enemyData: {fileID: 11400000, guid: b90fd9bb074c0574db7932fdb30c8bd6, type: 2}
      amount: 20
      rate: 0.2
    - enemyData: {fileID: 11400000, guid: b90fd9bb074c0574db7932fdb30c8bd6, type: 2}
      amount: 20
      rate: 0.12
    - enemyData: {fileID: 11400000, guid: 046a25368dda7a842bf744333ae98cca, type: 2}
      amount: 20
      rate: 0.3
    - enemyData: {fileID: 11400000, guid: 2cbb78feca79c8441847468824df684c, type: 2}
      amount: 2
      rate: 5
  - groups:
    - enemyData: {fileID: 11400000, guid: aa093f0641c9cb04ba56b0cef49654f6, type: 2}
      amount: 1
      rate: 0.1
    - enemyData: {fileID: 11400000, guid: 046a25368dda7a842bf744333ae98cca, type: 2}
      amount: 20
      rate: 0.2
    - enemyData: {fileID: 11400000, guid: 1f8bb8a79a89f344dbdfc2f0832c7cba, type: 2}
      amount: 20
      rate: 0.1
    - enemyData: {fileID: 11400000, guid: 2cbb78feca79c8441847468824df684c, type: 2}
      amount: 3
      rate: 0.3
    - enemyData: {fileID: 11400000, guid: b90fd9bb074c0574db7932fdb30c8bd6, type: 2}
      amount: 15
      rate: 0.5
    - enemyData: {fileID: 11400000, guid: 1f8bb8a79a89f344dbdfc2f0832c7cba, type: 2}
      amount: 20
      rate: 0.2
  - groups:
    - enemyData: {fileID: 11400000, guid: aa093f0641c9cb04ba56b0cef49654f6, type: 2}
      amount: 1
      rate: 1
    - enemyData: {fileID: 11400000, guid: b90fd9bb074c0574db7932fdb30c8bd6, type: 2}
      amount: 20
      rate: 0.25
    - enemyData: {fileID: 11400000, guid: 1f8bb8a79a89f344dbdfc2f0832c7cba, type: 2}
      amount: 40
      rate: 0.25
    - enemyData: {fileID: 11400000, guid: 2cbb78feca79c8441847468824df684c, type: 2}
      amount: 5
      rate: 2
    - enemyData: {fileID: 11400000, guid: b90fd9bb074c0574db7932fdb30c8bd6, type: 2}
      amount: 25
      rate: 0.4
    - enemyData: {fileID: 11400000, guid: 1f8bb8a79a89f344dbdfc2f0832c7cba, type: 2}
      amount: 25
      rate: 0.4
  - groups:
    - enemyData: {fileID: 11400000, guid: aa093f0641c9cb04ba56b0cef49654f6, type: 2}
      amount: 1
      rate: 1
    - enemyData: {fileID: 11400000, guid: 1f8bb8a79a89f344dbdfc2f0832c7cba, type: 2}
      amount: 35
      rate: 0.2
    - enemyData: {fileID: 11400000, guid: aa093f0641c9cb04ba56b0cef49654f6, type: 2}
      amount: 1
      rate: 1
    - enemyData: {fileID: 11400000, guid: 1f8bb8a79a89f344dbdfc2f0832c7cba, type: 2}
      amount: 20
      rate: 0.3
    - enemyData: {fileID: 11400000, guid: 2cbb78feca79c8441847468824df684c, type: 2}
      amount: 5
      rate: 3
    - enemyData: {fileID: 11400000, guid: b90fd9bb074c0574db7932fdb30c8bd6, type: 2}
      amount: 20
      rate: 0.4
    - enemyData: {fileID: 11400000, guid: 1f8bb8a79a89f344dbdfc2f0832c7cba, type: 2}
      amount: 50
      rate: 0.4
