%YAML 1.1
%TAG !u! tag:unity3d.com,2011:
--- !u!114 &11400000
MonoBehaviour:
  m_ObjectHideFlags: 0
  m_CorrespondingSourceObject: {fileID: 0}
  m_PrefabInstance: {fileID: 0}
  m_PrefabAsset: {fileID: 0}
  m_GameObject: {fileID: 0}
  m_Enabled: 1
  m_EditorHideFlags: 0
  m_Script: {fileID: 11500000, guid: a4cb74cf65e34aaa9337ea433eac166f, type: 3}
  m_Name: Enemy Data T6
  m_EditorClassIdentifier: 
  speed: 1
  damage: 50
  enemyPrefab: {fileID: 1300432881032417872, guid: c50e7ceb25827414389535f1607ef4ab,
    type: 3}
  moneyDrop: 20
