%YAML 1.1
%TAG !u! tag:unity3d.com,2011:
--- !u!114 &11400000
MonoBehaviour:
  m_ObjectHideFlags: 0
  m_CorrespondingSourceObject: {fileID: 0}
  m_PrefabInstance: {fileID: 0}
  m_PrefabAsset: {fileID: 0}
  m_GameObject: {fileID: 0}
  m_Enabled: 1
  m_EditorHideFlags: 0
  m_Script: {fileID: 11500000, guid: a4cb74cf65e34aaa9337ea433eac166f, type: 3}
  m_Name: Enemy Data T2
  m_EditorClassIdentifier: 
  speed: 7
  damage: 4
  enemyPrefab: {fileID: 5493373076779995601, guid: 69195a5647b97924a853ca4a224ea4ed,
    type: 3}
  moneyDrop: 5
