%YAML 1.1
%TAG !u! tag:unity3d.com,2011:
--- !u!114 &11400000
MonoBehaviour:
  m_ObjectHideFlags: 0
  m_CorrespondingSourceObject: {fileID: 0}
  m_PrefabInstance: {fileID: 0}
  m_PrefabAsset: {fileID: 0}
  m_GameObject: {fileID: 0}
  m_Enabled: 1
  m_EditorHideFlags: 0
  m_Script: {fileID: 11500000, guid: 412fabff66d64635b0512b5ea9695463, type: 3}
  m_Name: Tower Gunner
  m_EditorClassIdentifier: 
  towerName: Gunner
  icon: {fileID: 21300000, guid: 8fd7e473a5f714843a4ddddd1cc94198, type: 3}
  prefab: {fileID: 9181424072108255204, guid: 68340f3a14168cb4cb52cb3d0dc3c25c, type: 3}
  cost: 170
