%YAML 1.1
%TAG !u! tag:unity3d.com,2011:
--- !u!1 &6125408701765479758
GameObject:
  m_ObjectHideFlags: 0
  m_CorrespondingSourceObject: {fileID: 0}
  m_PrefabInstance: {fileID: 0}
  m_PrefabAsset: {fileID: 0}
  serializedVersion: 6
  m_Component:
  - component: {fileID: 6125408701765479752}
  - component: {fileID: 6125408701765479759}
  m_Layer: 10
  m_Name: '[Ghost Building]'
  m_TagString: Untagged
  m_Icon: {fileID: 0}
  m_NavMeshLayer: 0
  m_StaticEditorFlags: 0
  m_IsActive: 1
--- !u!4 &6125408701765479752
Transform:
  m_ObjectHideFlags: 0
  m_CorrespondingSourceObject: {fileID: 0}
  m_PrefabInstance: {fileID: 0}
  m_PrefabAsset: {fileID: 0}
  m_GameObject: {fileID: 6125408701765479758}
  m_LocalRotation: {x: 0, y: 0, z: 0, w: 1}
  m_LocalPosition: {x: 0, y: 0, z: 0}
  m_LocalScale: {x: 1, y: 1, z: 1}
  m_Children: []
  m_Father: {fileID: 0}
  m_RootOrder: 0
  m_LocalEulerAnglesHint: {x: 0, y: 0, z: 0}
--- !u!114 &6125408701765479759
MonoBehaviour:
  m_ObjectHideFlags: 0
  m_CorrespondingSourceObject: {fileID: 0}
  m_PrefabInstance: {fileID: 0}
  m_PrefabAsset: {fileID: 0}
  m_GameObject: {fileID: 6125408701765479758}
  m_Enabled: 1
  m_EditorHideFlags: 0
  m_Script: {fileID: 11500000, guid: e28cdc1f1cb54d9d9d91d2c16873da16, type: 3}
  m_Name: 
  m_EditorClassIdentifier: 
  buildingManager: {fileID: 0}
  buildingOkMaterial: {fileID: 2100000, guid: abf3ea6befda6864cbde79911e37c6a4, type: 2}
  buildingWrongMaterial: {fileID: 2100000, guid: b92b23f104e41cb4bbc9eec1e7da187f,
    type: 2}
  _towerInfoSo: {fileID: 11400000, guid: bf8890d0669a01f4bb48b7dc4ac17ab0, type: 2}
